com\iomis\SpringProject\controller\UserController.class
com\iomis\SpringProject\Main$UserService.class
com\iomis\SpringProject\config\SpringConfig.class
com\iomis\SpringProject\dao\UserDAO.class
com\iomis\SpringProject\Main.class
com\iomis\SpringProject\config\WebAppInitializer.class
com\iomis\SpringProject\config\WebConfig.class
com\iomis\SpringProject\service\UserService.class
